Pensando con Datos en R
…
##Manos a la obra con ggplot2()

---
## gg Gramática de Gráficos: data

Datos de PAES 2023:

--

```r
 datos_paes_2023
```

```
## # A tibble: 109,328 × 8
##       mrun sexo  dependencia colegio comuna lenguaje matematicas_1 matematicas_2
##      <dbl> <chr> <chr>       <chr>   <chr>     <dbl>         <dbl>         <dbl>
##  1  3.70e6 Homb… Particular… INSTIT… TEMUCO      816           846           558
##  2  2.27e7 Mujer Particular… COLEGI… TALCA       364           402           413
##  3  1.41e7 Homb… Público     INTERN… SANTI…      701           601           428
##  4  2.16e6 Mujer Público     CENTRO… CURAN…      396           437           399
##  5  7.52e6 Mujer Particular… COLEGI… RENCA       396           424           385
##  6  2.11e7 Mujer Particular… COLEGI… PUENT…      663           579           428
##  7  1.31e7 Mujer Particular… ESCUEL… ERCIL…      396           491           369
##  8  2.00e7 Mujer Particular… INSTIT… LO BA…      683           631           472
##  9  3.81e6 Homb… Público     LICEO … SANTI…      386           507           351
## 10  1.16e7 Mujer Particular… CTRO.E… LIMAC…      582           507           413
## # ℹ 109,318 more rows
```
…
