Pensando con Datos en R
…
```r
library("tidyverse") 
library("readr") 

setwd("/Users/Mauricio/Library/Mobile Documents/com~apple~CloudDocs/Teaching/ISUC/2024_1_nucleo_r2hs/data")

# leer archivo csv
datos_paes_2023 <- read_csv("paes_2023.csv")
```

--

```
## # A tibble: 109,328 × 8
##       mrun sexo  dependencia colegio comuna lenguaje matematicas_1 matematicas_2
##      <dbl> <chr> <chr>       <chr>   <chr>     <dbl>         <dbl>         <dbl>
##  1  3.70e6 Homb… Particular… INSTIT… TEMUCO      816           846           558
##  2  2.27e7 Mujer Particular… COLEGI… TALCA       364           402           413
##  3  1.41e7 Homb… Público     INTERN… SANTI…      701           601           428
##  4  2.16e6 Mujer Público     CENTRO… CURAN…      396           437           399
##  5  7.52e6 Mujer Particular… COLEGI… RENCA       396           424           385
##  6  2.11e7 Mujer Particular… COLEGI… PUENT…      663           579           428
##  7  1.31e7 Mujer Particular… ESCUEL… ERCIL…      396           491           369
##  8  2.00e7 Mujer Particular… INSTIT… LO BA…      683           631           472
##  9  3.81e6 Homb… Público     LICEO … SANTI…      386           507           351
## 10  1.16e7 Mujer Particular… CTRO.E… LIMAC…      582           507           413
## # ℹ 109,318 more rows
```
…
Las "pipes" de `tidyverse` permiten un flujo sencillo y ordenado en la manipulación de datos:

--

```r
datos_paes_2023 %>%
  select(mrun,colegio,dependencia,comuna,matematicas_2) %>%
  filter(dependencia == "Público") %>%
  arrange(desc(matematicas_2)) 
```
--

```
## # A tibble: 37,051 × 5
##        mrun colegio                             dependencia comuna matematicas_2
##       <dbl> <chr>                               <chr>       <chr>          <dbl>
##  1  7196927 INSTITUTO BICENTENARIO J.MIGUEL CA… Público     SAN A…          1000
##  2 15417392 LICEO MUNICIPALIZADO AMANDA LABARCA Público     VITAC…          1000
##  3 24872208 LICEO COMERCIAL ALEJANDRO LUBET V   Público     QUILP…           927
##  4 12441270 LICEO MUNICIPAL OSCAR CASTRO ZUNIGA Público     RANCA…           927
##  5  5908993 LICEO INSTITUTO NACIONAL            Público     SANTI…           927
##  6  2896913 LICEO INSTITUTO NACIONAL            Público     SANTI…           927
##  7 21924968 LICEO MUNICIPAL OSCAR CASTRO ZUNIGA Público     RANCA…           927
##  8  6639936 LICEO INSTITUTO NACIONAL            Público     SANTI…           927
##  9 11802381 LICEO INSTITUTO NACIONAL            Público     SANTI…           927
## 10   843242 LICEO INSTITUTO NACIONAL            Público     SANTI…           927
## # ℹ 37,041 more rows
```
…
## select: selección de variables

La función `select()` permite reterner un sub-conjunto de las variables presentes en la base de datos.

Supongamos que sólo estamos interesados en trabajar con las variables `sexo`,`edad` y `educ`. Podemos retener sólo estas tres variables usando la función `select()`.
 
--

```r
datos_paes_2023 %>% select(colegio,dependencia,matematicas_1)
```

```
## # A tibble: 109,328 × 3
##    colegio                                             dependencia matematicas_1
##    <chr>                                               <chr>               <dbl>
##  1 INSTITUTO CLARET                                    Particular…           846
##  2 COLEGIO PIAGET                                      Particular…           402
##  3 INTERNADO NACIONAL BARROS ARANA                     Público               601
##  4 CENTRO EDUCACIÓN INTEGRADO ADULTOS FERMÍN FIERRO L… Público               437
##  5 COLEGIO DE ADULTO LAURA VICUNA DE RENCA             Particular…           424
##  6 COLEGIO EL RACO                                     Particular…           579
##  7 ESCUELA PARTICULAR SAN LEONARDO                     Particular…           491
##  8 INSTITUTO HEBREO DR CHAIM WEIZMANN-ORT              Particular…           631
##  9 LICEO DE ADULTOS HERBERT VARGAS WALLIS              Público               507
## 10 CTRO.EDUCACION INTEGRADA DE ADULTOS SAN FRANC       Particular…           507
## # ℹ 109,318 more rows
```
…
La función `filter()` permite reterner el sub-conjunto de observaciones que cumple con las condiciones especificadas por el usuario. 

--

Supongamos que sólo estamos interesados en estudiantes de colegio particulares pagados. Podemos retener este sub-conjunto de filas usando la función `filter()`. 

--

```r
datos_paes_2023 %>% filter(dependencia=="Particular Pagado")
```

```
## # A tibble: 15,240 × 8
##       mrun sexo  dependencia colegio comuna lenguaje matematicas_1 matematicas_2
##      <dbl> <chr> <chr>       <chr>   <chr>     <dbl>         <dbl>         <dbl>
##  1  2.00e7 Mujer Particular… INSTIT… LO BA…      683           631           472
##  2  7.27e6 Homb… Particular… COLEGI… SANTI…      834           909           825
##  3  3.49e6 Mujer Particular… JUNIOR… ARICA       582           554           332
##  4  4.31e6 Homb… Particular… LICEO … RECOL…      714           949           736
##  5  7.56e5 Homb… Particular… LICEO … ÑUÑOA       816           671           578
##  6  1.28e7 Mujer Particular… COLEGI… SAN M…      853           567           385
##  7  1.07e7 Homb… Particular… COLEGI… LA RE…      816          1000           927
##  8  7.61e6 Homb… Particular… INSTIT… LOS A…      788           971           775
##  9  1.42e6 Mujer Particular… C EST … ANTOF…      490           389           332
## 10  4.93e5 Homb… Particular… COLEGI… LA SE…      151           324           245
## # ℹ 15,230 more rows
```
…
Supongamos que queremos crear una nueva variable que calcule el puntaje promedio en las tres pruebas obligatorias:

--

```r
datos_paes_2023 <- datos_paes_2023 %>% 
  mutate(puntaje_total = (lenguaje + matematicas_1 + matematicas_2)/3)
```

--

```
## # A tibble: 109,328 × 9
##       mrun sexo  dependencia colegio comuna lenguaje matematicas_1 matematicas_2
##      <dbl> <chr> <chr>       <chr>   <chr>     <dbl>         <dbl>         <dbl>
##  1  3.70e6 Homb… Particular… INSTIT… TEMUCO      816           846           558
##  2  2.27e7 Mujer Particular… COLEGI… TALCA       364           402           413
##  3  1.41e7 Homb… Público     INTERN… SANTI…      701           601           428
##  4  2.16e6 Mujer Público     CENTRO… CURAN…      396           437           399
##  5  7.52e6 Mujer Particular… COLEGI… RENCA       396           424           385
##  6  2.11e7 Mujer Particular… COLEGI… PUENT…      663           579           428
##  7  1.31e7 Mujer Particular… ESCUEL… ERCIL…      396           491           369
##  8  2.00e7 Mujer Particular… INSTIT… LO BA…      683           631           472
##  9  3.81e6 Homb… Público     LICEO … SANTI…      386           507           351
## 10  1.16e7 Mujer Particular… CTRO.E… LIMAC…      582           507           413
## # ℹ 109,318 more rows
## # ℹ 1 more variable: puntaje_total <dbl>
```
…
Supongamos que queremos agregar un nueva variable que calcule el promedio en la prueba de matemáticas 1 por dependencia. `group_by()` es una herramienta muy conveniente para realizar este tipo de operaciones.

--

```r
datos_paes_2023 %>% 
* group_by(dependencia) %>%
* mutate(promedio_mat1_dependencia = mean(matematicas_1, na.rm=T))  %>%
  select(mrun,dependencia,matematicas_1,promedio_mat1_dependencia)
```

```
## # A tibble: 109,328 × 4
## # Groups:   dependencia [3]
##        mrun dependencia              matematicas_1 promedio_mat1_dependencia
##       <dbl> <chr>                            <dbl>                     <dbl>
##  1  3703667 Particular Subvencionado           846                      583.
##  2 22654139 Particular Subvencionado           402                      583.
##  3 14080890 Público                            601                      544.
##  4  2155950 Público                            437                      544.
##  5  7517281 Particular Subvencionado           424                      583.
##  6 21055758 Particular Subvencionado           579                      583.
##  7 13089991 Particular Subvencionado           491                      583.
##  8 19964150 Particular Pagado                  631                      764.
##  9  3813884 Público                            507                      544.
## 10 11594045 Particular Subvencionado           507                      583.
## # ℹ 109,318 more rows
```
…
